Class Name: ParkingAreaDAL, Method Name : GetAvailableParking, Error Message: Connection Timeout Expired.  The timeout period elapsed during the post-login phase.  The connection could have timed out while waiting for server to complete the login process and respond; Or it could have timed out while attempting to create multiple active connections.  The duration spent while attempting to connect to this server was - [Pre-Login] initialization=1544; handshake=7030; [Login] initialization=0; authentication=2; [Post-Login] complete=6252; , Error Log Time : 9/27/2016 11:09:51 AM 
Class Name: ParkingAreaDAL, Method Name : GetAvailableParking, Error Message: Cannot find table 0., Error Log Time : 9/27/2016 11:49:57 PM 
Class Name: ParkingAreaDAL, Method Name : GetAvailableParking, Error Message: Cannot find table 0., Error Log Time : 9/27/2016 11:50:43 PM 
